memory_initialization_radix = 16;
memory_initialization_vector =
008008f5312341234,  
01212121212121212,  
03434343434343434,  
05656565656565656,  
07878787878787878,  
09A9A9A9A9A9A9A9A,  
0BCBCBCBCBCBCBCBC,  
0EFEFEFEFEFEFEFEF,  
01313131313131313,  
03535353535353535,  
05757575757575757,  
07979797979797979,  
19b9b9b9b9b9b9b9b,  
0bdbdbdbdbdbdbdbd,
0e0e0e0e0e0e0e0e0,
01414141414141414; 